bpm_tb.vcd
$date
  Sun Jul  9 21:48:41 2017
$end
$version
  GHDL v0
$end
$timescale
  1 fs
$end
$var reg 1 ! x $end
$var reg 1 " y $end
$var reg 1 # z $end
$var reg 1 $ p $end
$var reg 1 % data $end
$var reg 1 & clk $end
$var reg 1 ' spdif_out $end
$var reg 8 ( frame[7:0] $end
$scope module uut $end
$var reg 1 ) x $end
$var reg 1 * y $end
$var reg 1 + z $end
$var reg 1 , p $end
$var reg 1 - data $end
$var reg 1 . clk $end
$var reg 1 / spdif_out $end
$var reg 6 0 state[5:0] $end
$upscope $end
$enddefinitions $end
#0
0!
0"
1#
0$
1%
1&
1'
b00000001 (
0)
0*
1+
0,
1-
1.
1/
b011111 0
#500000
0&
0.
#1000000
0#
1&
0+
1.
b100001 0
#1500000
0&
0.
#2000000
0%
1&
0-
1.
b100011 0
#2500000
0&
0.
#3000000
1&
0'
1.
0/
b100100 0
#3500000
0&
0.
#4000000
1&
1'
1.
1/
b100101 0
#4500000
0&
0.
#5000000
1&
0'
1.
0/
b100110 0
#5500000
0&
0.
#6000000
1%
1&
1-
1.
b101000 0
#6500000
0&
0.
#7000000
1&
1.
b101010 0
#7500000
0&
0.
#8000000
1&
1'
1.
1/
b000001 0
#8500000
0&
0.
#9000000
1&
0'
1.
0/
b000010 0
#9500000
0&
0.
#10000000
0%
1&
1'
0-
1.
1/
b000001 0
#10500000
0&
0.
#11000000
1&
1.
b000011 0
#11500000
0&
0.
#12000000
1&
0'
1.
0/
b000010 0
#12500000
0&
0.
#13000000
1&
1'
1.
1/
b000001 0
#13500000
0&
0.
#14000000
1%
1&
0'
1-
1.
0/
b000010 0
#14500000
0&
0.
#15000000
1&
1'
1.
1/
b000001 0
#15500000
0&
0.
#16000000
1&
0'
1.
0/
b000010 0
#16500000
0&
0.
#17000000
1&
1'
1.
1/
b000001 0
#17500000
0&
0.
#18000000
0%
1&
0-
1.
b000011 0
#18500000
0&
0.
#19000000
1&
0'
1.
0/
b000010 0
#19500000
0&
0.
#20000000
1&
1'
1.
1/
b000001 0
#20500000
0&
0.
#21000000
1&
1.
b000011 0
#21500000
0&
0.
#22000000
1%
1&
0'
1-
1.
0/
b000010 0
#22500000
0&
0.
#23000000
1&
1'
1.
1/
b000001 0
#23500000
0&
0.
#24000000
1&
0'
1.
0/
b000010 0
#24500000
0&
0.
#25000000
1&
1'
1.
1/
b000001 0
#25500000
0&
0.
#26000000
0%
1&
0-
1.
b000011 0
#26500000
0&
0.
#27000000
1&
0'
1.
0/
b000010 0
#27500000
0&
0.
#28000000
1&
1'
1.
1/
b000001 0
#28500000
0&
0.
#29000000
1&
1.
b000011 0
#29500000
0&
0.
#30000000
1%
1&
0'
1-
1.
0/
b000010 0
#30500000
0&
0.
#31000000
1&
1'
1.
1/
b000001 0
#31500000
0&
0.
#32000000
1&
0'
1.
0/
b000010 0
#32500000
0&
0.
#33000000
1&
1'
1.
1/
b000001 0
#33500000
0&
0.
#34000000
0%
1&
0-
1.
b000011 0
#34500000
0&
0.
#35000000
1&
0'
1.
0/
b000010 0
#35500000
0&
0.
#36000000
1&
1'
1.
1/
b000001 0
#36500000
0&
0.
#37000000
1&
1.
b000011 0
#37500000
0&
0.
#38000000
1%
1&
0'
1-
1.
0/
b000010 0
#38500000
0&
0.
#39000000
1&
1'
1.
1/
b000001 0
#39500000
0&
0.
#40000000
1&
0'
1.
0/
b000010 0
#40500000
0&
0.
#41000000
1&
1'
1.
1/
b000001 0
#41500000
0&
0.
#42000000
0%
1&
0-
1.
b000011 0
#42500000
0&
0.
#43000000
1&
0'
1.
0/
b000010 0
#43500000
0&
0.
#44000000
1&
1'
1.
1/
b000001 0
#44500000
0&
0.
#45000000
1&
1.
b000011 0
#45500000
0&
0.
#46000000
1%
1&
0'
1-
1.
0/
b000010 0
#46500000
0&
0.
#47000000
1&
1'
1.
1/
b000001 0
#47500000
0&
0.
#48000000
1&
0'
1.
0/
b000010 0
#48500000
0&
0.
#49000000
1&
1'
1.
1/
b000001 0
#49500000
0&
0.
#50000000
0%
1&
0-
1.
b000011 0
#50500000
0&
0.
#51000000
1&
0'
1.
0/
b000010 0
#51500000
0&
0.
#52000000
1&
1'
1.
1/
b000001 0
#52500000
0&
0.
#53000000
1&
1.
b000011 0
#53500000
0&
0.
#54000000
1%
1&
0'
1-
1.
0/
b000010 0
#54500000
0&
0.
#55000000
1&
1'
1.
1/
b000001 0
#55500000
0&
0.
#56000000
1&
0'
1.
0/
b000010 0
#56500000
0&
0.
#57000000
1&
1'
1.
1/
b000001 0
#57500000
0&
0.
#58000000
0%
1&
0-
1.
b000011 0
#58500000
0&
0.
#59000000
1&
0'
1.
0/
b000010 0
#59500000
0&
0.
#60000000
1&
1'
1.
1/
b000001 0
#60500000
0&
0.
#61000000
1&
1.
b000011 0
#61500000
0&
0.
#62000000
1$
1%
1&
0'
1,
1-
1.
0/
b000100 0
#62500000
0&
0.
#63000000
1&
1.
b000110 0
#63500000
0&
0.
#64000000
1"
0$
1&
1'
1*
0,
1.
1/
b010011 0
#64500000
0&
0.
#65000000
0"
1&
0*
1.
b010101 0
#65500000
0&
0.
#66000000
0%
1&
0-
1.
b010111 0
#66500000
0&
0.
#67000000
1&
0'
1.
0/
b011000 0
#67500000
0&
0.
#68000000
1&
1.
b011010 0
#68500000
0&
0.
#69000000
1&
1'
1.
1/
b011011 0
#69500000
0&
0.
#70000000
1%
1&
0'
1-
1.
0/
b011100 0
#70500000
0&
0.
#71000000
1&
1.
b011110 0
#71500000
0&
0.
#72000000
1&
1'
1.
1/
b000001 0
#72500000
0&
0.
#73000000
1&
0'
1.
0/
b000010 0
#73500000
0&
0.
#74000000
0%
1&
1'
0-
1.
1/
b000001 0
#74500000
0&
0.
#75000000
1&
1.
b000011 0
#75500000
0&
0.
#76000000
1&
0'
1.
0/
b000010 0
#76500000
0&
0.
#77000000
1&
1'
1.
1/
b000001 0
#77500000
0&
0.
#78000000
1%
1&
0'
1-
1.
0/
b000010 0
#78500000
0&
0.
#79000000
1&
1'
1.
1/
b000001 0
#79500000
0&
0.
#80000000
1&
0'
1.
0/
b000010 0
#80500000
0&
0.
#81000000
1&
1'
1.
1/
b000001 0
#81500000
0&
0.
#82000000
0%
1&
0-
1.
b000011 0
#82500000
0&
0.
#83000000
1&
0'
1.
0/
b000010 0
#83500000
0&
0.
#84000000
1&
1'
1.
1/
b000001 0
#84500000
0&
0.
#85000000
1&
1.
b000011 0
#85500000
0&
0.
#86000000
1%
1&
0'
1-
1.
0/
b000010 0
#86500000
0&
0.
#87000000
1&
1'
1.
1/
b000001 0
#87500000
0&
0.
#88000000
1&
0'
1.
0/
b000010 0
#88500000
0&
0.
#89000000
1&
1'
1.
1/
b000001 0
#89500000
0&
0.
#90000000
0%
1&
0-
1.
b000011 0
#90500000
0&
0.
#91000000
1&
0'
1.
0/
b000010 0
#91500000
0&
0.
#92000000
1&
1'
1.
1/
b000001 0
#92500000
0&
0.
#93000000
1&
1.
b000011 0
#93500000
0&
0.
#94000000
1%
1&
0'
1-
1.
0/
b000010 0
#94500000
0&
0.
#95000000
1&
1'
1.
1/
b000001 0
#95500000
0&
0.
#96000000
1&
0'
1.
0/
b000010 0
#96500000
0&
0.
#97000000
1&
1'
1.
1/
b000001 0
#97500000
0&
0.
#98000000
0%
1&
0-
1.
b000011 0
#98500000
0&
0.
#99000000
1&
0'
1.
0/
b000010 0
#99500000
0&
0.
#100000000
1&
1'
1.
1/
b000001 0
#100500000
0&
0.
#101000000
1&
1.
b000011 0
#101500000
0&
0.
#102000000
1%
1&
0'
1-
1.
0/
b000010 0
#102500000
0&
0.
#103000000
1&
1'
1.
1/
b000001 0
#103500000
0&
0.
#104000000
1&
0'
1.
0/
b000010 0
#104500000
0&
0.
#105000000
1&
1'
1.
1/
b000001 0
#105500000
0&
0.
#106000000
0%
1&
0-
1.
b000011 0
#106500000
0&
0.
#107000000
1&
0'
1.
0/
b000010 0
#107500000
0&
0.
#108000000
1&
1'
1.
1/
b000001 0
#108500000
0&
0.
#109000000
1&
1.
b000011 0
#109500000
0&
0.
#110000000
1%
1&
0'
1-
1.
0/
b000010 0
#110500000
0&
0.
#111000000
1&
1'
1.
1/
b000001 0
#111500000
0&
0.
#112000000
1&
0'
1.
0/
b000010 0
#112500000
0&
0.
#113000000
1&
1'
1.
1/
b000001 0
#113500000
0&
0.
#114000000
0%
1&
0-
1.
b000011 0
#114500000
0&
0.
#115000000
1&
0'
1.
0/
b000010 0
#115500000
0&
0.
#116000000
1&
1'
1.
1/
b000001 0
#116500000
0&
0.
#117000000
1&
1.
b000011 0
#117500000
0&
0.
#118000000
1%
1&
0'
1-
1.
0/
b000010 0
#118500000
0&
0.
#119000000
1&
1'
1.
1/
b000001 0
#119500000
0&
0.
#120000000
1&
0'
1.
0/
b000010 0
#120500000
0&
0.
#121000000
1&
1'
1.
1/
b000001 0
#121500000
0&
0.
#122000000
0%
1&
0-
1.
b000011 0
#122500000
0&
0.
#123000000
1&
0'
1.
0/
b000010 0
#123500000
0&
0.
#124000000
1&
1'
1.
1/
b000001 0
#124500000
0&
0.
#125000000
1&
1.
b000011 0
#125500000
0&
0.
#126000000
1$
1%
1&
0'
1,
1-
1.
0/
b000100 0
#126500000
0&
0.
#127000000
1&
1.
b000110 0
#127500000
0&
0.
#128000000
1!
0$
1&
1'
b00000010 (
1)
0,
1.
1/
b000111 0
#128500000
0&
0.
#129000000
0!
1&
0)
1.
b001001 0
#129500000
0&
0.
#130000000
0%
1&
0-
1.
b001011 0
#130500000
0&
0.
#131000000
1&
0'
1.
0/
b001100 0
#131500000
0&
0.
#132000000
1&
1.
b001110 0
#132500000
0&
0.
#133000000
1&
1.
b010000 0
#133500000
0&
0.
#134000000
1&
1'
1.
1/
b010001 0
#134500000
0&
0.
#135000000
1&
0'
1.
0/
b010010 0
#135500000
0&
0.
#136000000
1%
1&
1'
1-
1.
1/
b000001 0
#136500000
0&
0.
#137000000
1&
0'
1.
0/
b000010 0
#137500000
0&
0.
#138000000
1&
1'
1.
1/
b000001 0
#138500000
0&
0.
#139000000
1&
0'
1.
0/
b000010 0
#139500000
0&
0.
#140000000
1&
1'
1.
1/
b000001 0
#140500000
0&
0.
#141000000
1&
0'
1.
0/
b000010 0
#141500000
0&
0.
#142000000
0%
1&
1'
0-
1.
1/
b000001 0
#142500000
0&
0.
#143000000
1&
1.
b000011 0
#143500000
0&
0.
#144000000
1&
0'
1.
0/
b000010 0
#144500000
0&
0.
#145000000
1&
1'
1.
1/
b000001 0
#145500000
0&
0.
#146000000
1&
1.
b000011 0
#146500000
0&
0.
#147000000
1&
0'
1.
0/
b000010 0
#147500000
0&
0.
#148000000
1%
1&
1'
1-
1.
1/
b000001 0
#148500000
0&
0.
#149000000
1&
0'
1.
0/
b000010 0
#149500000
0&
0.
#150000000
1&
1'
1.
1/
b000001 0
#150500000
0&
0.
#151000000
1&
0'
1.
0/
b000010 0
#151500000
0&
0.
#152000000
1&
1'
1.
1/
b000001 0
#152500000
0&
0.
#153000000
1&
0'
1.
0/
b000010 0
#153500000
0&
0.
#154000000
0%
1&
1'
0-
1.
1/
b000001 0
#154500000
0&
0.
#155000000
1&
1.
b000011 0
#155500000
0&
0.
#156000000
1&
0'
1.
0/
b000010 0
#156500000
0&
0.
#157000000
1&
1'
1.
1/
b000001 0
#157500000
0&
0.
#158000000
1&
1.
b000011 0
#158500000
0&
0.
#159000000
1&
0'
1.
0/
b000010 0
#159500000
0&
0.
#160000000
1%
1&
1'
1-
1.
1/
b000001 0
#160500000
0&
0.
#161000000
1&
0'
1.
0/
b000010 0
#161500000
0&
0.
#162000000
1&
1'
1.
1/
b000001 0
#162500000
0&
0.
#163000000
1&
0'
1.
0/
b000010 0
#163500000
0&
0.
#164000000
1&
1'
1.
1/
b000001 0
#164500000
0&
0.
#165000000
1&
0'
1.
0/
b000010 0
#165500000
0&
0.
#166000000
0%
1&
1'
0-
1.
1/
b000001 0
#166500000
0&
0.
#167000000
1&
1.
b000011 0
#167500000
0&
0.
#168000000
1&
0'
1.
0/
b000010 0
#168500000
0&
0.
#169000000
1&
1'
1.
1/
b000001 0
#169500000
0&
0.
#170000000
1&
1.
b000011 0
#170500000
0&
0.
#171000000
1&
0'
1.
0/
b000010 0
#171500000
0&
0.
#172000000
1%
1&
1'
1-
1.
1/
b000001 0
#172500000
0&
0.
#173000000
1&
0'
1.
0/
b000010 0
#173500000
0&
0.
#174000000
1&
1'
1.
1/
b000001 0
#174500000
0&
0.
#175000000
1&
0'
1.
0/
b000010 0
#175500000
0&
0.
#176000000
1&
1'
1.
1/
b000001 0
#176500000
0&
0.
#177000000
1&
0'
1.
0/
b000010 0
#177500000
0&
0.
#178000000
0%
1&
1'
0-
1.
1/
b000001 0
#178500000
0&
0.
#179000000
1&
1.
b000011 0
#179500000
0&
0.
#180000000
1&
0'
1.
0/
b000010 0
#180500000
0&
0.
#181000000
1&
1'
1.
1/
b000001 0
#181500000
0&
0.
#182000000
1&
1.
b000011 0
#182500000
0&
0.
#183000000
1&
0'
1.
0/
b000010 0
#183500000
0&
0.
#184000000
1%
1&
1'
1-
1.
1/
b000001 0
#184500000
0&
0.
#185000000
1&
0'
1.
0/
b000010 0
#185500000
0&
0.
#186000000
1&
1'
1.
1/
b000001 0
#186500000
0&
0.
#187000000
1&
0'
1.
0/
b000010 0
#187500000
0&
0.
#188000000
1&
1'
1.
1/
b000001 0
#188500000
0&
0.
#189000000
1&
0'
1.
0/
b000010 0
#189500000
0&
0.
#190000000
1$
0%
1&
1'
1,
0-
1.
1/
b000101 0
#190500000
0&
0.
#191000000
1&
0'
1.
0/
b000110 0
#191500000
0&
0.
#192000000
1"
0$
1&
1'
1*
0,
1.
1/
b010011 0
#192500000
0&
0.
#193000000
0"
1&
0*
1.
b010101 0
#193500000
0&
0.
#194000000
1&
1.
b010111 0
#194500000
0&
0.
#195000000
1&
0'
1.
0/
b011000 0
#195500000
0&
0.
#196000000
1%
1&
1-
1.
b011010 0
#196500000
0&
0.
#197000000
1&
1'
1.
1/
b011011 0
#197500000
0&
0.
#198000000
1&
0'
1.
0/
b011100 0
#198500000
0&
0.
#199000000
1&
1.
b011110 0
#199500000
0&
0.
#200000000
1&
1'
1.
1/
b000001 0
#200500000
0&
0.
#201000000
1&
0'
1.
0/
b000010 0
#201500000
0&
0.
#202000000
0%
1&
1'
0-
1.
1/
b000001 0
#202500000
0&
0.
#203000000
1&
1.
b000011 0
#203500000
0&
0.
#204000000
1&
0'
1.
0/
b000010 0
#204500000
0&
0.
#205000000
1&
1'
1.
1/
b000001 0
#205500000
0&
0.
#206000000
1&
1.
b000011 0
#206500000
0&
0.
#207000000
1&
0'
1.
0/
b000010 0
#207500000
0&
0.
#208000000
1%
1&
1'
1-
1.
1/
b000001 0
#208500000
0&
0.
#209000000
1&
0'
1.
0/
b000010 0
#209500000
0&
0.
#210000000
1&
1'
1.
1/
b000001 0
#210500000
0&
0.
#211000000
1&
0'
1.
0/
b000010 0
#211500000
0&
0.
#212000000
1&
1'
1.
1/
b000001 0
#212500000
0&
0.
#213000000
1&
0'
1.
0/
b000010 0
#213500000
0&
0.
#214000000
0%
1&
1'
0-
1.
1/
b000001 0
#214500000
0&
0.
#215000000
1&
1.
b000011 0
#215500000
0&
0.
#216000000
1&
0'
1.
0/
b000010 0
#216500000
0&
0.
#217000000
1&
1'
1.
1/
b000001 0
#217500000
0&
0.
#218000000
1&
1.
b000011 0
#218500000
0&
0.
#219000000
1&
0'
1.
0/
b000010 0
#219500000
0&
0.
#220000000
1%
1&
1'
1-
1.
1/
b000001 0
#220500000
0&
0.
#221000000
1&
0'
1.
0/
b000010 0
#221500000
0&
0.
#222000000
1&
1'
1.
1/
b000001 0
#222500000
0&
0.
#223000000
1&
0'
1.
0/
b000010 0
#223500000
0&
0.
#224000000
1&
1'
1.
1/
b000001 0
#224500000
0&
0.
#225000000
1&
0'
1.
0/
b000010 0
#225500000
0&
0.
#226000000
0%
1&
1'
0-
1.
1/
b000001 0
#226500000
0&
0.
#227000000
1&
1.
b000011 0
#227500000
0&
0.
#228000000
1&
0'
1.
0/
b000010 0
#228500000
0&
0.
#229000000
1&
1'
1.
1/
b000001 0
#229500000
0&
0.
#230000000
1&
1.
b000011 0
#230500000
0&
0.
#231000000
1&
0'
1.
0/
b000010 0
#231500000
0&
0.
#232000000
1%
1&
1'
1-
1.
1/
b000001 0
#232500000
0&
0.
#233000000
1&
0'
1.
0/
b000010 0
#233500000
0&
0.
#234000000
1&
1'
1.
1/
b000001 0
#234500000
0&
0.
#235000000
1&
0'
1.
0/
b000010 0
#235500000
0&
0.
#236000000
1&
1'
1.
1/
b000001 0
#236500000
0&
0.
#237000000
1&
0'
1.
0/
b000010 0
#237500000
0&
0.
#238000000
0%
1&
1'
0-
1.
1/
b000001 0
#238500000
0&
0.
#239000000
1&
1.
b000011 0
#239500000
0&
0.
#240000000
1&
0'
1.
0/
b000010 0
#240500000
0&
0.
#241000000
1&
1'
1.
1/
b000001 0
#241500000
0&
0.
#242000000
1&
1.
b000011 0
#242500000
0&
0.
#243000000
1&
0'
1.
0/
b000010 0
#243500000
0&
0.
#244000000
1%
1&
1'
1-
1.
1/
b000001 0
#244500000
0&
0.
#245000000
1&
0'
1.
0/
b000010 0
#245500000
0&
0.
#246000000
1&
1'
1.
1/
b000001 0
#246500000
0&
0.
#247000000
1&
0'
1.
0/
b000010 0
#247500000
0&
0.
#248000000
1&
1'
1.
1/
b000001 0
#248500000
0&
0.
#249000000
1&
0'
1.
0/
b000010 0
#249500000
0&
0.
#250000000
0%
1&
1'
0-
1.
1/
b000001 0
#250500000
0&
0.
#251000000
1&
1.
b000011 0
#251500000
0&
0.
#252000000
1&
0'
1.
0/
b000010 0
#252500000
0&
0.
#253000000
1&
1'
1.
1/
b000001 0
#253500000
0&
0.
#254000000
1$
1&
1,
1.
b000011 0
#254500000
0&
0.
#255000000
1&
0'
1.
0/
b000100 0
#255500000
0&
0.
#256000000
1!
0$
1%
1&
1'
b00000011 (
1)
0,
1-
1.
1/
b000111 0
#256500000
0&
0.
#257000000
0!
1&
0)
1.
b001001 0
#257500000
0&
0.
#258000000
1&
1.
b001011 0
#258500000
0&
0.
#259000000
1&
0'
1.
0/
b001100 0
#259500000
0&
0.
#260000000
1&
1.
b001110 0
#260500000
0&
0.
#261000000
1&
1.
b010000 0
#261500000
0&
0.
#262000000
0%
1&
1'
0-
1.
1/
b010001 0
#262500000
0&
0.
#263000000
1&
0'
1.
0/
b010010 0
#263500000
0&
0.
#264000000
1&
1'
1.
1/
b000001 0
#264500000
0&
0.
#265000000
1&
1.
b000011 0
#265500000
0&
0.
#266000000
1&
0'
1.
0/
b000010 0
#266500000
0&
0.
#267000000
1&
1'
1.
1/
b000001 0
#267500000
0&
0.
#268000000
1&
1.
b000011 0
#268500000
0&
0.
#269000000
1&
0'
1.
0/
b000010 0
#269500000
0&
0.
#270000000
1%
1&
1'
1-
1.
1/
b000001 0
#270500000
0&
0.
#271000000
1&
0'
1.
0/
b000010 0
#271500000
0&
0.
#272000000
1&
1'
1.
1/
b000001 0
#272500000
0&
0.
#273000000
1&
0'
1.
0/
b000010 0
#273500000
0&
0.
#274000000
1&
1'
1.
1/
b000001 0
#274500000
0&
0.
#275000000
1&
0'
1.
0/
b000010 0
#275500000
0&
0.
#276000000
1&
1'
1.
1/
b000001 0
#276500000
0&
0.
#277000000
1&
0'
1.
0/
b000010 0
#277500000
0&
0.
#278000000
0%
1&
1'
0-
1.
1/
b000001 0
#278500000
0&
0.
#279000000
1&
1.
b000011 0
#279500000
0&
0.
#280000000
1&
0'
1.
0/
b000010 0
#280500000
0&
0.
#281000000
1&
1'
1.
1/
b000001 0
#281500000
0&
0.
#282000000
1&
1.
b000011 0
#282500000
0&
0.
#283000000
1&
0'
1.
0/
b000010 0
#283500000
0&
0.
#284000000
1&
1'
1.
1/
b000001 0
#284500000
0&
0.
#285000000
1&
1.
b000011 0
#285500000
0&
0.
#286000000
1%
1&
0'
1-
1.
0/
b000010 0
#286500000
0&
0.
#287000000
1&
1'
1.
1/
b000001 0
#287500000
0&
0.
#288000000
1&
0'
1.
0/
b000010 0
#288500000
0&
0.
#289000000
1&
1'
1.
1/
b000001 0
#289500000
0&
0.
#290000000
1&
0'
1.
0/
b000010 0
#290500000
0&
0.
#291000000
1&
1'
1.
1/
b000001 0
#291500000
0&
0.
#292000000
1&
0'
1.
0/
b000010 0
#292500000
0&
0.
#293000000
1&
1'
1.
1/
b000001 0
#293500000
0&
0.
#294000000
0%
1&
0-
1.
b000011 0
#294500000
0&
0.
#295000000
1&
0'
1.
0/
b000010 0
#295500000
0&
0.
#296000000
1&
1'
1.
1/
b000001 0
#296500000
0&
0.
#297000000
1&
1.
b000011 0
#297500000
0&
0.
#298000000
1&
0'
1.
0/
b000010 0
#298500000
0&
0.
#299000000
1&
1'
1.
1/
b000001 0
#299500000
0&
0.
#300000000
1&
1.
b000011 0
#300500000
0&
0.
#301000000
1&
0'
1.
0/
b000010 0
#301500000
0&
0.
#302000000
1%
1&
1'
1-
1.
1/
b000001 0
#302500000
0&
0.
#303000000
1&
0'
1.
0/
b000010 0
#303500000
0&
0.
#304000000
1&
1'
1.
1/
b000001 0
#304500000
0&
0.
#305000000
1&
0'
1.
0/
b000010 0
#305500000
0&
0.
#306000000
1&
1'
1.
1/
b000001 0
#306500000
0&
0.
#307000000
1&
0'
1.
0/
b000010 0
#307500000
0&
0.
#308000000
1&
1'
1.
1/
b000001 0
#308500000
0&
0.
#309000000
1&
0'
1.
0/
b000010 0
#309500000
0&
0.
#310000000
0%
1&
1'
0-
1.
1/
b000001 0
#310500000
0&
0.
#311000000
1&
1.
b000011 0
#311500000
0&
0.
#312000000
1&
0'
1.
0/
b000010 0
#312500000
0&
0.
#313000000
1&
1'
1.
1/
b000001 0
#313500000
0&
0.
#314000000
1&
1.
b000011 0
#314500000
0&
0.
#315000000
1&
0'
1.
0/
b000010 0
#315500000
0&
0.
#316000000
1&
1'
1.
1/
b000001 0
#316500000
0&
0.
#317000000
1&
1.
b000011 0
#317500000
0&
0.
#318000000
1$
1%
1&
0'
1,
1-
1.
0/
b000100 0
#318500000
0&
0.
#319000000
1&
1.
b000110 0
#319500000
0&
0.
#320000000
1"
0$
1&
1'
1*
0,
1.
1/
b010011 0
#320500000
0&
0.
#321000000
0"
1&
0*
1.
b010101 0
#321500000
0&
0.
#322000000
1&
1.
b010111 0
#322500000
0&
0.
#323000000
1&
0'
1.
0/
b011000 0
#323500000
0&
0.
#324000000
1&
1.
b011010 0
#324500000
0&
0.
#325000000
1&
1'
1.
1/
b011011 0
#325500000
0&
0.
#326000000
0%
1&
0'
0-
1.
0/
b011100 0
#326500000
0&
0.
#327000000
1&
1.
b011110 0
#327500000
0&
0.
#328000000
1&
1'
1.
1/
b000001 0
#328500000
0&
0.
#329000000
1&
1.
b000011 0
#329500000
0&
0.
#330000000
1&
0'
1.
0/
b000010 0
#330500000
0&
0.
#331000000
1&
1'
1.
1/
b000001 0
#331500000
0&
0.
#332000000
1&
1.
b000011 0
#332500000
0&
0.
#333000000
1&
0'
1.
0/
b000010 0
#333500000
0&
0.
#334000000
1%
1&
1'
1-
1.
1/
b000001 0
#334500000
0&
0.
#335000000
1&
0'
1.
0/
b000010 0
#335500000
0&
0.
#336000000
1&
1'
1.
1/
b000001 0
#336500000
0&
0.
#337000000
1&
0'
1.
0/
b000010 0
#337500000
0&
0.
#338000000
1&
1'
1.
1/
b000001 0
#338500000
0&
0.
#339000000
1&
0'
1.
0/
b000010 0
#339500000
0&
0.
#340000000
1&
1'
1.
1/
b000001 0
#340500000
0&
0.
#341000000
1&
0'
1.
0/
b000010 0
#341500000
0&
0.
#342000000
0%
1&
1'
0-
1.
1/
b000001 0
#342500000
0&
0.
#343000000
1&
1.
b000011 0
#343500000
0&
0.
#344000000
1&
0'
1.
0/
b000010 0
#344500000
0&
0.
#345000000
1&
1'
1.
1/
b000001 0
#345500000
0&
0.
#346000000
1&
1.
b000011 0
#346500000
0&
0.
#347000000
1&
0'
1.
0/
b000010 0
#347500000
0&
0.
#348000000
1&
1'
1.
1/
b000001 0
#348500000
0&
0.
#349000000
1&
1.
b000011 0
#349500000
0&
0.
#350000000
1%
1&
0'
1-
1.
0/
b000010 0
#350500000
0&
0.
#351000000
1&
1'
1.
1/
b000001 0
#351500000
0&
0.
#352000000
1&
0'
1.
0/
b000010 0
#352500000
0&
0.
#353000000
1&
1'
1.
1/
b000001 0
#353500000
0&
0.
#354000000
1&
0'
1.
0/
b000010 0
#354500000
0&
0.
#355000000
1&
1'
1.
1/
b000001 0
#355500000
0&
0.
#356000000
1&
0'
1.
0/
b000010 0
#356500000
0&
0.
#357000000
1&
1'
1.
1/
b000001 0
#357500000
0&
0.
#358000000
0%
1&
0-
1.
b000011 0
#358500000
0&
0.
#359000000
1&
0'
1.
0/
b000010 0
#359500000
0&
0.
#360000000
1&
1'
1.
1/
b000001 0
#360500000
0&
0.
#361000000
1&
1.
b000011 0
#361500000
0&
0.
#362000000
1&
0'
1.
0/
b000010 0
#362500000
0&
0.
#363000000
1&
1'
1.
1/
b000001 0
#363500000
0&
0.
#364000000
1&
1.
b000011 0
#364500000
0&
0.
#365000000
1&
0'
1.
0/
b000010 0
#365500000
0&
0.
#366000000
1%
1&
1'
1-
1.
1/
b000001 0
#366500000
0&
0.
#367000000
1&
0'
1.
0/
b000010 0
#367500000
0&
0.
#368000000
1&
1'
1.
1/
b000001 0
#368500000
0&
0.
#369000000
1&
0'
1.
0/
b000010 0
#369500000
0&
0.
#370000000
1&
1'
1.
1/
b000001 0
#370500000
0&
0.
#371000000
1&
0'
1.
0/
b000010 0
#371500000
0&
0.
#372000000
1&
1'
1.
1/
b000001 0
#372500000
0&
0.
#373000000
1&
0'
1.
0/
b000010 0
#373500000
0&
0.
#374000000
0%
1&
1'
0-
1.
1/
b000001 0
#374500000
0&
0.
#375000000
1&
1.
b000011 0
#375500000
0&
0.
#376000000
1&
0'
1.
0/
b000010 0
#376500000
0&
0.
#377000000
1&
1'
1.
1/
b000001 0
#377500000
0&
0.
#378000000
1&
1.
b000011 0
#378500000
0&
0.
#379000000
1&
0'
1.
0/
b000010 0
#379500000
0&
0.
#380000000
1&
1'
1.
1/
b000001 0
#380500000
0&
0.
#381000000
1&
1.
b000011 0
#381500000
0&
0.
#382000000
1$
1%
1&
0'
1,
1-
1.
0/
b000100 0
#382500000
0&
0.
#383000000
1&
1.
b000110 0
#383500000
0&
0.
#384000000
1!
0$
1&
1'
b00000100 (
1)
0,
1.
1/
b000111 0
#384500000
0&
0.
#385000000
0!
1&
0)
1.
b001001 0
#385500000
0&
0.
#386000000
1&
1.
b001011 0
#386500000
0&
0.
#387000000
1&
0'
1.
0/
b001100 0
#387500000
0&
0.
#388000000
1&
1.
b001110 0
#388500000
0&
0.
#389000000
1&
1.
b010000 0
#389500000
0&
0.
#390000000
0%
1&
1'
0-
1.
1/
b010001 0
#390500000
0&
0.
#391000000
1&
0'
1.
0/
b010010 0
#391500000
0&
0.
#392000000
1&
1'
1.
1/
b000001 0
#392500000
0&
0.
#393000000
1&
1.
b000011 0
#393500000
0&
0.
#394000000
1&
0'
1.
0/
b000010 0
#394500000
0&
0.
#395000000
1&
1'
1.
1/
b000001 0
#395500000
0&
0.
#396000000
1&
1.
b000011 0
#396500000
0&
0.
#397000000
1&
0'
1.
0/
b000010 0
#397500000
0&
0.
#398000000
1&
1'
1.
1/
b000001 0
#398500000
0&
0.
#399000000
1&
1.
b000011 0
#399500000
0&
0.
#400000000
1%
1&
0'
1-
1.
0/
b000010 0
#400500000
0&
0.
#401000000
1&
1'
1.
1/
b000001 0
#401500000
0&
0.
#402000000
1&
0'
1.
0/
b000010 0
#402500000
0&
0.
#403000000
1&
1'
1.
1/
b000001 0
#403500000
0&
0.
#404000000
1&
0'
1.
0/
b000010 0
#404500000
0&
0.
#405000000
1&
1'
1.
1/
b000001 0
#405500000
0&
0.
#406000000
1&
0'
1.
0/
b000010 0
#406500000
0&
0.
#407000000
1&
1'
1.
1/
b000001 0
#407500000
0&
0.
#408000000
1&
0'
1.
0/
b000010 0
#408500000
0&
0.
#409000000
1&
1'
1.
1/
b000001 0
#409500000
0&
0.
#410000000
0%
1&
0-
1.
b000011 0
#410500000
0&
0.
#411000000
1&
0'
1.
0/
b000010 0
#411500000
0&
0.
#412000000
1&
1'
1.
1/
b000001 0
#412500000
0&
0.
#413000000
1&
1.
b000011 0
#413500000
0&
0.
#414000000
1&
0'
1.
0/
b000010 0
#414500000
0&
0.
#415000000
1&
1'
1.
1/
b000001 0
#415500000
0&
0.
#416000000
1&
1.
b000011 0
#416500000
0&
0.
#417000000
1&
0'
1.
0/
b000010 0
#417500000
0&
0.
#418000000
1&
1'
1.
1/
b000001 0
#418500000
0&
0.
#419000000
1&
1.
b000011 0
#419500000
0&
0.
#420000000
1%
1&
0'
1-
1.
0/
b000010 0
#420500000
0&
0.
#421000000
1&
1'
1.
1/
b000001 0
#421500000
0&
0.
#422000000
1&
0'
1.
0/
b000010 0
#422500000
0&
0.
#423000000
1&
1'
1.
1/
b000001 0
#423500000
0&
0.
#424000000
1&
0'
1.
0/
b000010 0
#424500000
0&
0.
#425000000
1&
1'
1.
1/
b000001 0
#425500000
0&
0.
#426000000
1&
0'
1.
0/
b000010 0
#426500000
0&
0.
#427000000
1&
1'
1.
1/
b000001 0
#427500000
0&
0.
#428000000
1&
0'
1.
0/
b000010 0
#428500000
0&
0.
#429000000
1&
1'
1.
1/
b000001 0
#429500000
0&
0.
#430000000
0%
1&
0-
1.
b000011 0
#430500000
0&
0.
